Example Assignment R Solutions
…
Use the dataset from Our
World in Data

Download vaccinations.csv.

This dataset contains daily vaccination figures per country worldwide,
with columns such as date, location, total_vaccinations,
people_vaccinated, people_fully_vaccinated, daily_vaccinations, etc.

Load the data In RStudio.

ex3 <- read_csv("./data/exercise03/vaccinations.csv")
ex3

## # A tibble: 196,246 × 16
##    location    iso_code date       total_vaccinations people_vaccinated
##    <chr>       <chr>    <date>                  <dbl>             <dbl>
##  1 Afghanistan AFG      2021-02-22                  0                 0
##  2 Afghanistan AFG      2021-02-23                 NA                NA
##  3 Afghanistan AFG      2021-02-24                 NA                NA
##  4 Afghanistan AFG      2021-02-25                 NA                NA
##  5 Afghanistan AFG      2021-02-26                 NA                NA
##  6 Afghanistan AFG      2021-02-27                 NA                NA
##  7 Afghanistan AFG      2021-02-28               8200              8200
##  8 Afghanistan AFG      2021-03-01                 NA                NA
##  9 Afghanistan AFG      2021-03-02                 NA                NA
## 10 Afghanistan AFG      2021-03-03                 NA                NA
## # ℹ 196,236 more rows
## # ℹ 11 more variables: people_fully_vaccinated <dbl>, total_boosters <dbl>,
## #   daily_vaccinations_raw <dbl>, daily_vaccinations <dbl>,
## #   total_vaccinations_per_hundred <dbl>, people_vaccinated_per_hundred <dbl>,
## #   people_fully_vaccinated_per_hundred <dbl>,
## #   total_boosters_per_hundred <dbl>, daily_vaccinations_per_million <dbl>,
## #   daily_people_vaccinated <dbl>, daily_people_vaccinated_per_hundred <dbl>
…
